%!PS-Adobe-2.0 EPSF-2.0
%%Title: sallicat.eps
%%Creator: fig2dev Version 3.2 Patchlevel 1
%%CreationDate: Tue Nov  9 18:31:05 1999
%%For: bmanuel@obelix (Manuel Bronstein,DR ,93657824,)
%%Orientation: Portrait
%%BoundingBox: 0 0 802 533
%%Pages: 0
%%BeginSetup
%%EndSetup
%%Magnification: 1.0000
%%EndComments
/$F2psDict 200 dict def
$F2psDict begin
$F2psDict /mtrx matrix put
/col-1 {0 setgray} bind def
/col0 {0.000 0.000 0.000 srgb} bind def
/col1 {0.000 0.000 1.000 srgb} bind def
/col2 {0.000 1.000 0.000 srgb} bind def
/col3 {0.000 1.000 1.000 srgb} bind def
/col4 {1.000 0.000 0.000 srgb} bind def
/col5 {1.000 0.000 1.000 srgb} bind def
/col6 {1.000 1.000 0.000 srgb} bind def
/col7 {1.000 1.000 1.000 srgb} bind def
/col8 {0.000 0.000 0.560 srgb} bind def
/col9 {0.000 0.000 0.690 srgb} bind def
/col10 {0.000 0.000 0.820 srgb} bind def
/col11 {0.530 0.810 1.000 srgb} bind def
/col12 {0.000 0.560 0.000 srgb} bind def
/col13 {0.000 0.690 0.000 srgb} bind def
/col14 {0.000 0.820 0.000 srgb} bind def
/col15 {0.000 0.560 0.560 srgb} bind def
/col16 {0.000 0.690 0.690 srgb} bind def
/col17 {0.000 0.820 0.820 srgb} bind def
/col18 {0.560 0.000 0.000 srgb} bind def
/col19 {0.690 0.000 0.000 srgb} bind def
/col20 {0.820 0.000 0.000 srgb} bind def
/col21 {0.560 0.000 0.560 srgb} bind def
/col22 {0.690 0.000 0.690 srgb} bind def
/col23 {0.820 0.000 0.820 srgb} bind def
/col24 {0.500 0.190 0.000 srgb} bind def
/col25 {0.630 0.250 0.000 srgb} bind def
/col26 {0.750 0.380 0.000 srgb} bind def
/col27 {1.000 0.500 0.500 srgb} bind def
/col28 {1.000 0.630 0.630 srgb} bind def
/col29 {1.000 0.750 0.750 srgb} bind def
/col30 {1.000 0.880 0.880 srgb} bind def
/col31 {1.000 0.840 0.000 srgb} bind def

end
save
-21.0 557.0 translate
1 -1 scale

/cp {closepath} bind def
/ef {eofill} bind def
/gr {grestore} bind def
/gs {gsave} bind def
/sa {save} bind def
/rs {restore} bind def
/l {lineto} bind def
/m {moveto} bind def
/rm {rmoveto} bind def
/n {newpath} bind def
/s {stroke} bind def
/sh {show} bind def
/slc {setlinecap} bind def
/slj {setlinejoin} bind def
/slw {setlinewidth} bind def
/srgb {setrgbcolor} bind def
/rot {rotate} bind def
/sc {scale} bind def
/sd {setdash} bind def
/ff {findfont} bind def
/sf {setfont} bind def
/scf {scalefont} bind def
/sw {stringwidth} bind def
/tr {translate} bind def
/tnt {dup dup currentrgbcolor
  4 -2 roll dup 1 exch sub 3 -1 roll mul add
  4 -2 roll dup 1 exch sub 3 -1 roll mul add
  4 -2 roll dup 1 exch sub 3 -1 roll mul add srgb}
  bind def
/shd {dup dup currentrgbcolor 4 -2 roll mul 4 -2 roll mul
  4 -2 roll mul srgb} bind def
/$F2psBegin {$F2psDict begin /$F2psEnteredState save def} def
/$F2psEnd {$F2psEnteredState restore end} def
%%EndProlog

$F2psBegin
10 setmiterlimit
n -1000 9829 m -1000 -1000 l 14056 -1000 l 14056 9829 l cp clip
 0.06299 0.06299 sc
% Polyline
7.500 slw
n 6900 1530 m 6795 1530 6795 1740 105 arcto 4 {pop} repeat
  6795 1845 7675 1845 105 arcto 4 {pop} repeat
  7780 1845 7780 1635 105 arcto 4 {pop} repeat
  7780 1530 6900 1530 105 arcto 4 {pop} repeat
 cp gs col0 s gr 
% Polyline
n 11040 1530 m 10935 1530 10935 1740 105 arcto 4 {pop} repeat
  10935 1845 12530 1845 105 arcto 4 {pop} repeat
  12635 1845 12635 1635 105 arcto 4 {pop} repeat
  12635 1530 11040 1530 105 arcto 4 {pop} repeat
 cp gs col0 s gr 
% Polyline
n 10860 3060 m 10755 3060 10755 3270 105 arcto 4 {pop} repeat
  10755 3375 12775 3375 105 arcto 4 {pop} repeat
  12880 3375 12880 3165 105 arcto 4 {pop} repeat
  12880 3060 10860 3060 105 arcto 4 {pop} repeat
 cp gs col0 s gr 
% Polyline
n 7245 675 m 7245 1530 l gs col0 s gr 
% Polyline
n 7515 630 m 11835 1530 l gs col0 s gr 
% Polyline
n 11790 1845 m 11790 3060 l gs col0 s gr 
% Polyline
n 7065 675 m 5760 1530 l gs col0 s gr 
% Polyline
n 7425 675 m 8550 1530 l gs col0 s gr 
% Polyline
n 5190 1530 m 5085 1530 5085 1740 105 arcto 4 {pop} repeat
  5085 1845 6380 1845 105 arcto 4 {pop} repeat
  6485 1845 6485 1635 105 arcto 4 {pop} repeat
  6485 1530 5190 1530 105 arcto 4 {pop} repeat
 cp gs col0 s gr 
% Polyline
n 8205 1530 m 8100 1530 8100 1740 105 arcto 4 {pop} repeat
  8100 1845 8895 1845 105 arcto 4 {pop} repeat
  9000 1845 9000 1635 105 arcto 4 {pop} repeat
  9000 1530 8205 1530 105 arcto 4 {pop} repeat
 cp gs col0 s gr 
% Polyline
 [15 60] 60 sd
n 10725 2250 m 10620 2250 10620 2460 105 arcto 4 {pop} repeat
  10620 2565 11490 2565 105 arcto 4 {pop} repeat
  11595 2565 11595 2355 105 arcto 4 {pop} repeat
  11595 2250 10725 2250 105 arcto 4 {pop} repeat
 cp gs col0 s gr  [] 0 sd
% Polyline
 [15 45] 45 sd
n 7470 675 m 11115 2250 l gs col0 s gr  [] 0 sd
% Polyline
n 6975 630 m 3105 1530 l gs col0 s gr 
% Polyline
n 3105 1845 m 1125 2790 l gs col0 s gr 
% Polyline
n 2625 1530 m 2520 1530 2520 1740 105 arcto 4 {pop} repeat
  2520 1845 3600 1845 105 arcto 4 {pop} repeat
  3705 1845 3705 1635 105 arcto 4 {pop} repeat
  3705 1530 2625 1530 105 arcto 4 {pop} repeat
 cp gs col0 s gr 
% Polyline
n 6950 2790 m 6845 2790 6845 3000 105 arcto 4 {pop} repeat
  6845 3105 7640 3105 105 arcto 4 {pop} repeat
  7745 3105 7745 2895 105 arcto 4 {pop} repeat
  7745 2790 6950 2790 105 arcto 4 {pop} repeat
 cp gs col0 s gr 
% Polyline
n 3105 1845 m 7290 2790 l gs col0 s gr 
% Polyline
 [15 60] 60 sd
n 5985 3690 m 5880 3690 5880 3900 105 arcto 4 {pop} repeat
  5880 4005 6485 4005 105 arcto 4 {pop} repeat
  6590 4005 6590 3795 105 arcto 4 {pop} repeat
  6590 3690 5985 3690 105 arcto 4 {pop} repeat
 cp gs col0 s gr  [] 0 sd
% Polyline
 [15 45] 45 sd
n 7290 3105 m 6255 3690 l gs col0 s gr  [] 0 sd
% Polyline
 [15 45] 45 sd
n 7290 3105 m 7290 3690 l gs col0 s gr  [] 0 sd
% Polyline
 [15 45] 45 sd
n 7290 3105 m 8235 3690 l gs col0 s gr  [] 0 sd
% Polyline
 [15 45] 45 sd
n 7155 3690 m 7050 3690 7050 3900 105 arcto 4 {pop} repeat
  7050 4005 7400 4005 105 arcto 4 {pop} repeat
  7505 4005 7505 3795 105 arcto 4 {pop} repeat
  7505 3690 7155 3690 105 arcto 4 {pop} repeat
 cp gs col0 s gr  [] 0 sd
% Polyline
 [15 45] 45 sd
n 7920 3690 m 7815 3690 7815 3900 105 arcto 4 {pop} repeat
  7815 4005 8635 4005 105 arcto 4 {pop} repeat
  8740 4005 8740 3795 105 arcto 4 {pop} repeat
  8740 3690 7920 3690 105 arcto 4 {pop} repeat
 cp gs col0 s gr  [] 0 sd
% Polyline
n 465 2790 m 360 2790 360 3000 105 arcto 4 {pop} repeat
  360 3105 1860 3105 105 arcto 4 {pop} repeat
  1965 3105 1965 2895 105 arcto 4 {pop} repeat
  1965 2790 465 2790 105 arcto 4 {pop} repeat
 cp gs col0 s gr 
% Polyline
n 7290 3150 m 5220 6165 l gs col0 s gr 
% Polyline
n 1125 3105 m 3105 4455 l gs col0 s gr 
% Polyline
n 3105 4770 m 5220 6165 l gs col0 s gr 
% Polyline
n 5220 6165 m 5220 3105 l gs col0 s gr 
% Polyline
 [15 45] 45 sd
n 5220 3105 m 6300 3690 l gs col0 s gr  [] 0 sd
% Polyline
n 3105 1845 m 5175 2790 l gs col0 s gr 
% Polyline
n 3150 4770 m 1755 6165 l gs col0 s gr 
% Polyline
 [15 45] 45 sd
n 4005 7020 m 3900 7020 3900 7230 105 arcto 4 {pop} repeat
  3900 7335 5095 7335 105 arcto 4 {pop} repeat
  5200 7335 5200 7125 105 arcto 4 {pop} repeat
  5200 7020 4005 7020 105 arcto 4 {pop} repeat
 cp gs col0 s gr  [] 0 sd
% Polyline
 [15 45] 45 sd
n 5490 7020 m 5385 7020 5385 7230 105 arcto 4 {pop} repeat
  5385 7335 5910 7335 105 arcto 4 {pop} repeat
  6015 7335 6015 7125 105 arcto 4 {pop} repeat
  6015 7020 5490 7020 105 arcto 4 {pop} repeat
 cp gs col0 s gr  [] 0 sd
% Polyline
n 4785 6165 m 4680 6165 4680 6375 105 arcto 4 {pop} repeat
  4680 6480 5620 6480 105 arcto 4 {pop} repeat
  5725 6480 5725 6270 105 arcto 4 {pop} repeat
  5725 6165 4785 6165 105 arcto 4 {pop} repeat
 cp gs col0 s gr 
% Polyline
 [15 45] 45 sd
n 5265 6480 m 4545 7020 l gs col0 s gr  [] 0 sd
% Polyline
 [15 45] 45 sd
n 5220 6480 m 5715 7020 l gs col0 s gr  [] 0 sd
% Polyline
 [15 45] 45 sd
n 2025 7020 m 1920 7020 1920 7230 105 arcto 4 {pop} repeat
  1920 7335 2855 7335 105 arcto 4 {pop} repeat
  2960 7335 2960 7125 105 arcto 4 {pop} repeat
  2960 7020 2025 7020 105 arcto 4 {pop} repeat
 cp gs col0 s gr  [] 0 sd
% Polyline
 [15 45] 45 sd
n 810 7020 m 705 7020 705 7230 105 arcto 4 {pop} repeat
  705 7335 1580 7335 105 arcto 4 {pop} repeat
  1685 7335 1685 7125 105 arcto 4 {pop} repeat
  1685 7020 810 7020 105 arcto 4 {pop} repeat
 cp gs col0 s gr  [] 0 sd
% Polyline
n 1365 6165 m 1260 6165 1260 6375 105 arcto 4 {pop} repeat
  1260 6480 2080 6480 105 arcto 4 {pop} repeat
  2185 6480 2185 6270 105 arcto 4 {pop} repeat
  2185 6165 1365 6165 105 arcto 4 {pop} repeat
 cp gs col0 s gr 
% Polyline
 [15 45] 45 sd
n 1755 6480 m 1170 7020 l gs col0 s gr  [] 0 sd
% Polyline
 [15 45] 45 sd
n 1755 6480 m 2430 7020 l gs col0 s gr  [] 0 sd
% Polyline
n 4380 2790 m 4275 2790 4275 3000 105 arcto 4 {pop} repeat
  4275 3105 6095 3105 105 arcto 4 {pop} repeat
  6200 3105 6200 2895 105 arcto 4 {pop} repeat
  6200 2790 4380 2790 105 arcto 4 {pop} repeat
 cp gs col0 s gr 
% Polyline
n 2310 4455 m 2205 4455 2205 4665 105 arcto 4 {pop} repeat
  2205 4770 3980 4770 105 arcto 4 {pop} repeat
  4085 4770 4085 4560 105 arcto 4 {pop} repeat
  4085 4455 2310 4455 105 arcto 4 {pop} repeat
 cp gs col0 s gr 
% Polyline
n 2580 3375 m 2475 3375 2475 3585 105 arcto 4 {pop} repeat
  2475 3690 3625 3690 105 arcto 4 {pop} repeat
  3730 3690 3730 3480 105 arcto 4 {pop} repeat
  3730 3375 2580 3375 105 arcto 4 {pop} repeat
 cp gs col0 s gr 
% Polyline
n 7080 405 m 6975 405 6975 570 105 arcto 4 {pop} repeat
  6975 675 7410 675 105 arcto 4 {pop} repeat
  7515 675 7515 510 105 arcto 4 {pop} repeat
  7515 405 7080 405 105 arcto 4 {pop} repeat
 cp gs col0 s gr 
% Polyline
n 2670 2475 m 2565 2475 2565 2685 105 arcto 4 {pop} repeat
  2565 2790 3555 2790 105 arcto 4 {pop} repeat
  3660 2790 3660 2580 105 arcto 4 {pop} repeat
  3660 2475 2670 2475 105 arcto 4 {pop} repeat
 cp gs col0 s gr 
/Times-Roman ff 180.00 scf sf
10620 4635 m
gs 1 -1 sc (Array) col0 sh gr
% Polyline
n 3105 1845 m 3105 2475 l gs col0 s gr 
% Polyline
n 3105 2790 m 3105 3375 l gs col0 s gr 
% Polyline
n 3105 3690 m 3105 4455 l gs col0 s gr 
% Polyline
 [15 45] 45 sd
n 12525 4410 m 12420 4410 12420 4620 105 arcto 4 {pop} repeat
  12420 4725 12905 4725 105 arcto 4 {pop} repeat
  13010 4725 13010 4515 105 arcto 4 {pop} repeat
  13010 4410 12525 4410 105 arcto 4 {pop} repeat
 cp gs col0 s gr  [] 0 sd
% Polyline
 [15 45] 45 sd
n 11985 4410 m 11880 4410 11880 4620 105 arcto 4 {pop} repeat
  11880 4725 12170 4725 105 arcto 4 {pop} repeat
  12275 4725 12275 4515 105 arcto 4 {pop} repeat
  12275 4410 11985 4410 105 arcto 4 {pop} repeat
 cp gs col0 s gr  [] 0 sd
% Polyline
 [15 45] 45 sd
n 11355 4410 m 11250 4410 11250 4620 105 arcto 4 {pop} repeat
  11250 4725 11585 4725 105 arcto 4 {pop} repeat
  11690 4725 11690 4515 105 arcto 4 {pop} repeat
  11690 4410 11355 4410 105 arcto 4 {pop} repeat
 cp gs col0 s gr  [] 0 sd
% Polyline
 [15 45] 45 sd
n 10665 4410 m 10560 4410 10560 4620 105 arcto 4 {pop} repeat
  10560 4725 10985 4725 105 arcto 4 {pop} repeat
  11090 4725 11090 4515 105 arcto 4 {pop} repeat
  11090 4410 10665 4410 105 arcto 4 {pop} repeat
 cp gs col0 s gr  [] 0 sd
% Polyline
 [15 45] 45 sd
n 11790 3375 m 10845 4410 l gs col0 s gr  [] 0 sd
% Polyline
 [15 45] 45 sd
n 11790 3375 m 11475 4410 l gs col0 s gr  [] 0 sd
% Polyline
 [15 45] 45 sd
n 11790 3375 m 12105 4410 l gs col0 s gr  [] 0 sd
% Polyline
 [15 45] 45 sd
n 11790 3375 m 12735 4410 l gs col0 s gr  [] 0 sd
/Times-Roman ff 180.00 scf sf
7065 585 m
gs 1 -1 sc (Type) col0 sh gr
/Times-Roman ff 180.00 scf sf
6840 1755 m
gs 1 -1 sc (OutputType) col0 sh gr
/Times-Roman ff 180.00 scf sf
11025 1755 m
gs 1 -1 sc (LinearStructureType) col0 sh gr
/Times-Roman ff 180.00 scf sf
10845 3285 m
gs 1 -1 sc (FiniteLinearStructureType) col0 sh gr
/Times-Roman ff 210.00 scf sf
6705 8235 m
gs 1 -1 sc (INPUT/OUTPUT) col0 sh gr
/Times-Roman ff 210.00 scf sf
10980 8235 m
gs 1 -1 sc (DATA STRUCTURES) col0 sh gr
/Times-Roman ff 180.00 scf sf
6075 8775 m
gs 1 -1 sc (Fig.1  The ) col0 sh gr
/Courier ff 180.00 scf sf
6885 8775 m
gs 1 -1 sc (salli) col0 sh gr
/Times-Roman ff 180.00 scf sf
7470 8775 m
gs 1 -1 sc (category hierarchy) col0 sh gr
/Times-Roman ff 180.00 scf sf
5175 1755 m
gs 1 -1 sc (SerializableType) col0 sh gr
/Times-Roman ff 180.00 scf sf
8190 1755 m
gs 1 -1 sc (InputType) col0 sh gr
/Times-Roman ff 180.00 scf sf
10710 2475 m
gs 1 -1 sc (HashTable) col0 sh gr
/Times-Roman ff 210.00 scf sf
2700 8235 m
gs 1 -1 sc (ARITHMETIC) col0 sh gr
/Times-Roman ff 180.00 scf sf
2610 1755 m
gs 1 -1 sc (PrimitiveType) col0 sh gr
/Times-Roman ff 180.00 scf sf
6930 3015 m
gs 1 -1 sc (HashType) col0 sh gr
/Times-Roman ff 180.00 scf sf
5940 3915 m
gs 1 -1 sc (Boolean) col0 sh gr
/Times-Roman ff 180.00 scf sf
7110 3915 m
gs 1 -1 sc (Byte) col0 sh gr
/Times-Roman ff 180.00 scf sf
7920 3915 m
gs 1 -1 sc (Character) col0 sh gr
/Times-Roman ff 180.00 scf sf
405 3015 m
gs 1 -1 sc (TotallyOrderedType) col0 sh gr
/Times-Roman ff 180.00 scf sf
3960 7245 m
gs 1 -1 sc (MachineInteger) col0 sh gr
/Times-Roman ff 180.00 scf sf
5445 7245 m
gs 1 -1 sc (Integer) col0 sh gr
/Times-Roman ff 180.00 scf sf
4770 6390 m
gs 1 -1 sc (IntegerType) col0 sh gr
/Times-Roman ff 180.00 scf sf
1980 7245 m
gs 1 -1 sc (DoubleFloat) col0 sh gr
/Times-Roman ff 180.00 scf sf
765 7245 m
gs 1 -1 sc (SingleFloat) col0 sh gr
/Times-Roman ff 180.00 scf sf
1350 6390 m
gs 1 -1 sc (FloatType) col0 sh gr
/Times-Roman ff 180.00 scf sf
4365 3015 m
gs 1 -1 sc (BooleanArithmeticType) col0 sh gr
/Times-Roman ff 180.00 scf sf
2250 4680 m
gs 1 -1 sc (OrderedArithmeticType) col0 sh gr
/Times-Roman ff 180.00 scf sf
2520 3600 m
gs 1 -1 sc (ArithmeticType) col0 sh gr
/Times-Roman ff 180.00 scf sf
2610 2700 m
gs 1 -1 sc (AdditiveType) col0 sh gr
/Times-Roman ff 180.00 scf sf
12510 4635 m
gs 1 -1 sc (String) col0 sh gr
/Times-Roman ff 180.00 scf sf
11970 4635 m
gs 1 -1 sc (Set) col0 sh gr
/Times-Roman ff 180.00 scf sf
11340 4635 m
gs 1 -1 sc (List) col0 sh gr
$F2psEnd
rs
