%!PS-Adobe-2.0 EPSF-2.0
%%Title: sumitpolcat.eps
%%Creator: fig2dev Version 3.2 Patchlevel 3c
%%CreationDate: Fri Aug  2 17:27:42 2002
%%For: bmanuel@obelix (Manuel Bronstein,DR ,93657824,)
%%BoundingBox: 0 0 419 541
%%Magnification: 1.0000
%%EndComments
/$F2psDict 200 dict def
$F2psDict begin
$F2psDict /mtrx matrix put
/col-1 {0 setgray} bind def
/col0 {0.000 0.000 0.000 srgb} bind def
/col1 {0.000 0.000 1.000 srgb} bind def
/col2 {0.000 1.000 0.000 srgb} bind def
/col3 {0.000 1.000 1.000 srgb} bind def
/col4 {1.000 0.000 0.000 srgb} bind def
/col5 {1.000 0.000 1.000 srgb} bind def
/col6 {1.000 1.000 0.000 srgb} bind def
/col7 {1.000 1.000 1.000 srgb} bind def
/col8 {0.000 0.000 0.560 srgb} bind def
/col9 {0.000 0.000 0.690 srgb} bind def
/col10 {0.000 0.000 0.820 srgb} bind def
/col11 {0.530 0.810 1.000 srgb} bind def
/col12 {0.000 0.560 0.000 srgb} bind def
/col13 {0.000 0.690 0.000 srgb} bind def
/col14 {0.000 0.820 0.000 srgb} bind def
/col15 {0.000 0.560 0.560 srgb} bind def
/col16 {0.000 0.690 0.690 srgb} bind def
/col17 {0.000 0.820 0.820 srgb} bind def
/col18 {0.560 0.000 0.000 srgb} bind def
/col19 {0.690 0.000 0.000 srgb} bind def
/col20 {0.820 0.000 0.000 srgb} bind def
/col21 {0.560 0.000 0.560 srgb} bind def
/col22 {0.690 0.000 0.690 srgb} bind def
/col23 {0.820 0.000 0.820 srgb} bind def
/col24 {0.500 0.190 0.000 srgb} bind def
/col25 {0.630 0.250 0.000 srgb} bind def
/col26 {0.750 0.380 0.000 srgb} bind def
/col27 {1.000 0.500 0.500 srgb} bind def
/col28 {1.000 0.630 0.630 srgb} bind def
/col29 {1.000 0.750 0.750 srgb} bind def
/col30 {1.000 0.880 0.880 srgb} bind def
/col31 {1.000 0.840 0.000 srgb} bind def

end
save
newpath 0 541 moveto 0 0 lineto 419 0 lineto 419 541 lineto closepath clip newpath
-13.0 548.0 translate
1 -1 scale

/cp {closepath} bind def
/ef {eofill} bind def
/gr {grestore} bind def
/gs {gsave} bind def
/sa {save} bind def
/rs {restore} bind def
/l {lineto} bind def
/m {moveto} bind def
/rm {rmoveto} bind def
/n {newpath} bind def
/s {stroke} bind def
/sh {show} bind def
/slc {setlinecap} bind def
/slj {setlinejoin} bind def
/slw {setlinewidth} bind def
/srgb {setrgbcolor} bind def
/rot {rotate} bind def
/sc {scale} bind def
/sd {setdash} bind def
/ff {findfont} bind def
/sf {setfont} bind def
/scf {scalefont} bind def
/sw {stringwidth} bind def
/tr {translate} bind def
/tnt {dup dup currentrgbcolor
  4 -2 roll dup 1 exch sub 3 -1 roll mul add
  4 -2 roll dup 1 exch sub 3 -1 roll mul add
  4 -2 roll dup 1 exch sub 3 -1 roll mul add srgb}
  bind def
/shd {dup dup currentrgbcolor 4 -2 roll mul 4 -2 roll mul
  4 -2 roll mul srgb} bind def
/$F2psBegin {$F2psDict begin /$F2psEnteredState save def} def
/$F2psEnd {$F2psEnteredState restore end} def

$F2psBegin
%%Page: 1 1
10 setmiterlimit
 0.06299 0.06299 sc
%
% Fig objects follow
%
/Times-Roman ff 180.00 scf sf
4095 3780 m
gs 1 -1 sc (UnivariateTaylorSeriesCategory) col1 sh gr
/Times-Roman ff 180.00 scf sf
2565 2160 m
gs 1 -1 sc (LinearArithmeticType) col0 sh gr
/Times-Roman ff 180.00 scf sf
1440 1170 m
gs 1 -1 sc (ArithmeticType) col0 sh gr
/Times-Roman ff 180.00 scf sf
1665 4590 m
gs 1 -1 sc (UnivariatePolynomialAlgebra) col0 sh gr
/Times-Roman ff 180.00 scf sf
3825 5580 m
gs 1 -1 sc (UnivariatePolynomialCategory) col1 sh gr
/Courier ff 270.00 scf sf
5490 2160 m
gs 1 -1 sc (Algebra) col0 sh gr
% Polyline
7.500 slw
n 4110 3555 m 4005 3555 4005 3765 105 arcto 4 {pop} repeat
  4005 3870 6485 3870 105 arcto 4 {pop} repeat
  6590 3870 6590 3660 105 arcto 4 {pop} repeat
  6590 3555 4110 3555 105 arcto 4 {pop} repeat
 cp gs col1 s gr 
% Polyline
n 2580 1935 m 2475 1935 2475 2145 105 arcto 4 {pop} repeat
  2475 2250 4150 2250 105 arcto 4 {pop} repeat
  4255 2250 4255 2040 105 arcto 4 {pop} repeat
  4255 1935 2580 1935 105 arcto 4 {pop} repeat
 cp gs col0 s gr 
% Polyline
n 1455 945 m 1350 945 1350 1155 105 arcto 4 {pop} repeat
  1350 1260 2610 1260 105 arcto 4 {pop} repeat
  2715 1260 2715 1050 105 arcto 4 {pop} repeat
  2715 945 1455 945 105 arcto 4 {pop} repeat
 cp gs col0 s gr 
% Polyline
n 1680 4365 m 1575 4365 1575 4575 105 arcto 4 {pop} repeat
  1575 4680 3830 4680 105 arcto 4 {pop} repeat
  3935 4680 3935 4470 105 arcto 4 {pop} repeat
  3935 4365 1680 4365 105 arcto 4 {pop} repeat
 cp gs col0 s gr 
% Polyline
n 3840 5355 m 3735 5355 3735 5565 105 arcto 4 {pop} repeat
  3735 5670 6095 5670 105 arcto 4 {pop} repeat
  6200 5670 6200 5460 105 arcto 4 {pop} repeat
  6200 5355 3840 5355 105 arcto 4 {pop} repeat
 cp gs col1 s gr 
/Times-Roman ff 180.00 scf sf
2025 3780 m
gs 1 -1 sc (MonogenicAlgebra) col0 sh gr
% Polyline
n 2040 3555 m 1935 3555 1935 3765 105 arcto 4 {pop} repeat
  1935 3870 3405 3870 105 arcto 4 {pop} repeat
  3510 3870 3510 3660 105 arcto 4 {pop} repeat
  3510 3555 2040 3555 105 arcto 4 {pop} repeat
 cp gs col0 s gr 
% Polyline
n 2175 2700 m 2070 2700 2070 2910 105 arcto 4 {pop} repeat
  2070 3015 4610 3015 105 arcto 4 {pop} repeat
  4715 3015 4715 2805 105 arcto 4 {pop} repeat
  4715 2700 2175 2700 105 arcto 4 {pop} repeat
 cp gs col0 s gr 
% Polyline
n 1500 6300 m 1395 6300 1395 6510 105 arcto 4 {pop} repeat
  1395 6615 4165 6615 105 arcto 4 {pop} repeat
  4270 6615 4270 6405 105 arcto 4 {pop} repeat
  4270 6300 1500 6300 105 arcto 4 {pop} repeat
 cp gs col4 s gr 
/Times-Roman ff 180.00 scf sf
2160 2925 m
gs 1 -1 sc (MonogenicLinearArithmeticType) col0 sh gr
/Times-Roman ff 180.00 scf sf
1485 6525 m
gs 1 -1 sc (UnivariateSkewPolynomialCategory) col4 sh gr
% Polyline
n 3300 7245 m 3195 7245 3195 7455 105 arcto 4 {pop} repeat
  3195 7560 6480 7560 105 arcto 4 {pop} repeat
  6585 7560 6585 7350 105 arcto 4 {pop} repeat
  6585 7245 3300 7245 105 arcto 4 {pop} repeat
 cp gs col4 s gr 
/Times-Roman ff 180.00 scf sf
3240 7470 m
gs 1 -1 sc (LinearOrdinaryDifferenceOperatorCategory) col4 sh gr
/Times-Roman ff 180.00 scf sf
270 8055 m
gs 1 -1 sc (LinearOrdinaryDifferentialOperatorCategory) col4 sh gr
/Times-Roman ff 180.00 scf sf
3645 8595 m
gs 1 -1 sc (LinearOrdinaryRecurrenceCategory) col4 sh gr
/Courier ff 270.00 scf sf
5535 6525 m
gs 1 -1 sc (Sum^it) col0 sh gr
% Polyline
n 330 7830 m 225 7830 225 8040 105 arcto 4 {pop} repeat
  225 8145 3585 8145 105 arcto 4 {pop} repeat
  3690 8145 3690 7935 105 arcto 4 {pop} repeat
  3690 7830 330 7830 105 arcto 4 {pop} repeat
 cp gs col4 s gr 
/Courier ff 270.00 scf sf
5490 630 m
gs 1 -1 sc (libaldor) col0 sh gr
% Polyline
n 3705 8370 m 3600 8370 3600 8580 105 arcto 4 {pop} repeat
  3600 8685 6265 8685 105 arcto 4 {pop} repeat
  6370 8685 6370 8475 105 arcto 4 {pop} repeat
  6370 8370 3705 8370 105 arcto 4 {pop} repeat
 cp gs col4 s gr 
/Times-Roman ff 180.00 scf sf
2790 360 m
gs 1 -1 sc (AdditiveType) col0 sh gr
/Times-Roman ff 180.00 scf sf
3465 1170 m
gs 1 -1 sc (LinearCombinationType) col0 sh gr
% Polyline
n 3480 945 m 3375 945 3375 1155 105 arcto 4 {pop} repeat
  3375 1260 5215 1260 105 arcto 4 {pop} repeat
  5320 1260 5320 1050 105 arcto 4 {pop} repeat
  5320 945 3480 945 105 arcto 4 {pop} repeat
 cp gs col0 s gr 
% Polyline
n 2850 135 m 2745 135 2745 345 105 arcto 4 {pop} repeat
  2745 450 3755 450 105 arcto 4 {pop} repeat
  3860 450 3860 240 105 arcto 4 {pop} repeat
  3860 135 2850 135 105 arcto 4 {pop} repeat
 cp gs col0 s gr 
% Polyline
n 3330 2250 m
 3330 2700 l gs col0 s gr 
% Polyline
n 3330 3015 m
 2745 3555 l gs col0 s gr 
% Polyline
n 3330 3015 m
 5310 3555 l gs col0 s gr 
% Polyline
n 2745 3870 m
 2745 4365 l gs col0 s gr 
% Polyline
n 2745 4680 m
 5040 5355 l gs col0 s gr 
% Polyline
15.000 slw
 [90] 0 sd
n 270 1530 m
 6660 1530 l gs col0 s gr  [] 0 sd
% Polyline
7.500 slw
n 2025 1260 m
 3330 1935 l gs col0 s gr 
% Polyline
n 2745 4680 m
 2745 6300 l gs col0 s gr 
% Polyline
n 3285 450 m
 4365 945 l gs col0 s gr 
% Polyline
15.000 slw
 [90] 0 sd
n 270 5940 m
 6660 5940 l gs col0 s gr  [] 0 sd
% Polyline
7.500 slw
n 2745 6615 m
 1845 7830 l gs col4 s gr 
% Polyline
n 2745 6615 m
 4995 7245 l gs col4 s gr 
% Polyline
n 4995 7560 m
 4995 8370 l gs col4 s gr 
% Polyline
n 3330 450 m
 2025 945 l gs col0 s gr 
% Polyline
n 4365 1260 m
 3330 1935 l gs col0 s gr 
$F2psEnd
rs
