%!PS-Adobe-2.0 EPSF-2.0
%%Title: /tmp/xfig-fig012349
%%Creator: fig2dev Version 2.1.8 Patchlevel 0
%%CreationDate: Wed Jul  6 15:10:15 1994
%%For: bronstei@ru7.inf.ethz.ch (Manuel Bronstein)
%%Orientation: Portrait
%%BoundingBox: 0 0 459 212
%%Pages: 0
%%EndComments
/$F2psDict 200 dict def 
$F2psDict begin
$F2psDict /mtrx matrix put
/l {lineto} bind def
/m {moveto} bind def
/s {stroke} bind def
/n {newpath} bind def
/gs {gsave} bind def
/gr {grestore} bind def
/clp {closepath} bind def
/graycol {dup dup currentrgbcolor 4 -2 roll mul 4 -2 roll mul
4 -2 roll mul setrgbcolor} bind def
/col-1 {} def
/col0 {0 0 0 setrgbcolor} bind def
/col1 {0 0 1 setrgbcolor} bind def
/col2 {0 1 0 setrgbcolor} bind def
/col3 {0 1 1 setrgbcolor} bind def
/col4 {1 0 0 setrgbcolor} bind def
/col5 {1 0 1 setrgbcolor} bind def
/col6 {1 1 0 setrgbcolor} bind def
/col7 {1 1 1 setrgbcolor} bind def
/col8 {.68 .85 .9 setrgbcolor} bind def
/col9 {0 .39 0 setrgbcolor} bind def
/col10 {.65 .17 .17 setrgbcolor} bind def
/col11 {1 .51 0 setrgbcolor} bind def
/col12 {.63 .13 .94 setrgbcolor} bind def
/col13 {1 .75 .8 setrgbcolor} bind def
/col14 {.7 .13 .13 setrgbcolor} bind def
/col15 {1 .84 0 setrgbcolor} bind def
 /DrawEllipse {
	/endangle exch def
	/startangle exch def
	/yrad exch def
	/xrad exch def
	/y exch def
	/x exch def
	/savematrix mtrx currentmatrix def
	x y translate xrad yrad scale 0 0 1 startangle endangle arc
	savematrix setmatrix
	} def

	end
/$F2psBegin {$F2psDict begin /$F2psEnteredState save def} def
/$F2psEnd {$F2psEnteredState restore end} def
%%EndProlog

$F2psBegin
0 setlinecap 0 setlinejoin
-72.0 234.0 translate 0.900 -0.900 scale
0.500 setlinewidth
% Ellipse
n 239 79 20 20 0 360 DrawEllipse gs col-1 s gr
% Ellipse
n 319 159 20 20 0 360 DrawEllipse gs col-1 s gr
% Ellipse
n 379 239 20 20 0 360 DrawEllipse gs col-1 s gr
% Ellipse
n 159 159 20 20 0 360 DrawEllipse gs col-1 s gr
% Ellipse
n 99 239 20 20 0 360 DrawEllipse gs col-1 s gr
% Ellipse
n 219 239 20 20 0 360 DrawEllipse gs col-1 s gr
% Ellipse
n 509 79 20 20 0 360 DrawEllipse gs col-1 s gr
% Ellipse
n 449 159 20 20 0 360 DrawEllipse gs col-1 s gr
% Ellipse
n 569 159 20 20 0 360 DrawEllipse gs col-1 s gr
% Polyline
n 174 144 m 224 94 l gs col-1 s gr
% Polyline
n 254 94 m 304 144 l gs col-1 s gr
% Polyline
n 334 174 m 374 219 l gs col-1 s gr
% Polyline
n 104 219 m 144 174 l gs col-1 s gr
% Polyline
n 174 174 m 214 219 l gs col-1 s gr
% Polyline
n 454 139 m 494 94 l gs col-1 s gr
% Polyline
n 524 94 m 564 139 l gs col-1 s gr
/Times-Roman findfont 12.00 scalefont setfont
234 84 m 
gs 1 -1 scale (12) col-1 show gr
/Times-Roman findfont 12.00 scalefont setfont
314 164 m 
gs 1 -1 scale (14) col-1 show gr
/Times-Roman findfont 12.00 scalefont setfont
374 244 m 
gs 1 -1 scale (20) col-1 show gr
/Times-Roman findfont 12.00 scalefont setfont
154 164 m 
gs 1 -1 scale (8) col-1 show gr
/Times-Roman findfont 12.00 scalefont setfont
94 244 m 
gs 1 -1 scale (6) col-1 show gr
/Times-Roman findfont 12.00 scalefont setfont
214 244 m 
gs 1 -1 scale (10) col-1 show gr
/Times-Roman findfont 12.00 scalefont setfont
239 39 m 
gs 1 -1 scale (t) col-1 show gr
/Times-Roman findfont 12.00 scalefont setfont
504 39 m 
gs 1 -1 scale (s) col-1 show gr
/Times-Roman findfont 12.00 scalefont setfont
504 84 m 
gs 1 -1 scale (8) col-1 show gr
/Times-Roman findfont 12.00 scalefont setfont
444 164 m 
gs 1 -1 scale (6) col-1 show gr
/Times-Roman findfont 12.00 scalefont setfont
564 164 m 
gs 1 -1 scale (10) col-1 show gr
$F2psEnd
