%!PS-Adobe-2.0 EPSF-2.0
%%Title: /tmp/xfig-fig012715
%%Creator: fig2dev Version 2.1.8 Patchlevel 0
%%CreationDate: Wed Jul  6 16:51:48 1994
%%For: bronstei@ru7.inf.ethz.ch (Manuel Bronstein)
%%Orientation: Portrait
%%BoundingBox: 0 0 437 144
%%Pages: 0
%%EndComments
/$F2psDict 200 dict def 
$F2psDict begin
$F2psDict /mtrx matrix put
/l {lineto} bind def
/m {moveto} bind def
/s {stroke} bind def
/n {newpath} bind def
/gs {gsave} bind def
/gr {grestore} bind def
/clp {closepath} bind def
/graycol {dup dup currentrgbcolor 4 -2 roll mul 4 -2 roll mul
4 -2 roll mul setrgbcolor} bind def
/col-1 {} def
/col0 {0 0 0 setrgbcolor} bind def
/col1 {0 0 1 setrgbcolor} bind def
/col2 {0 1 0 setrgbcolor} bind def
/col3 {0 1 1 setrgbcolor} bind def
/col4 {1 0 0 setrgbcolor} bind def
/col5 {1 0 1 setrgbcolor} bind def
/col6 {1 1 0 setrgbcolor} bind def
/col7 {1 1 1 setrgbcolor} bind def
/col8 {.68 .85 .9 setrgbcolor} bind def
/col9 {0 .39 0 setrgbcolor} bind def
/col10 {.65 .17 .17 setrgbcolor} bind def
/col11 {1 .51 0 setrgbcolor} bind def
/col12 {.63 .13 .94 setrgbcolor} bind def
/col13 {1 .75 .8 setrgbcolor} bind def
/col14 {.7 .13 .13 setrgbcolor} bind def
/col15 {1 .84 0 setrgbcolor} bind def
 /DrawEllipse {
	/endangle exch def
	/startangle exch def
	/yrad exch def
	/xrad exch def
	/y exch def
	/x exch def
	/savematrix mtrx currentmatrix def
	x y translate xrad yrad scale 0 0 1 startangle endangle arc
	savematrix setmatrix
	} def

	end
/$F2psBegin {$F2psDict begin /$F2psEnteredState save def} def
/$F2psEnd {$F2psEnteredState restore end} def
%%EndProlog

$F2psBegin
0 setlinecap 0 setlinejoin
-67.0 162.0 translate 0.900 -0.900 scale
0.500 setlinewidth
% Polyline
n 94 59 m 74 59 l  74 179 l  94 179 l gs col-1 s gr
% Polyline
n 339 59 m 319 59 l  319 179 l  339 179 l gs col-1 s gr
% Ellipse
n 449 79 20 20 0 360 DrawEllipse gs col-1 s gr
% Ellipse
n 509 159 20 20 0 360 DrawEllipse gs col-1 s gr
% Polyline
n 464 94 m 504 139 l gs col-1 s gr
/Times-Roman findfont 12.00 scalefont setfont
349 124 m 
gs 1 -1 scale (12) col-1 show gr
/Times-Roman findfont 12.00 scalefont setfont
444 84 m 
gs 1 -1 scale (14) col-1 show gr
/Times-Roman findfont 12.00 scalefont setfont
504 164 m 
gs 1 -1 scale (20) col-1 show gr
/Times-Roman findfont 12.00 scalefont setfont
424 34 m 
gs 1 -1 scale (lplus) col-1 show gr
/Times-Roman findfont 12.00 scalefont setfont
399 129 m 
gs 1 -1 scale (,) col-1 show gr
% Ellipse
n 179 79 20 20 0 360 DrawEllipse gs col-1 s gr
% Ellipse
n 119 159 20 20 0 360 DrawEllipse gs col-1 s gr
% Ellipse
n 239 159 20 20 0 360 DrawEllipse gs col-1 s gr
% Ellipse
n 354 119 20 20 0 360 DrawEllipse gs col-1 s gr
% Polyline
n 124 139 m 164 94 l gs col-1 s gr
% Polyline
n 194 94 m 234 139 l gs col-1 s gr
% Polyline
n 269 59 m 289 59 l  289 179 l  269 179 l gs col-1 s gr
% Polyline
n 539 59 m 559 59 l  559 179 l  539 179 l gs col-1 s gr
/Times-Roman findfont 12.00 scalefont setfont
174 84 m 
gs 1 -1 scale (8) col-1 show gr
/Times-Roman findfont 12.00 scalefont setfont
114 164 m 
gs 1 -1 scale (6) col-1 show gr
/Times-Roman findfont 12.00 scalefont setfont
234 164 m 
gs 1 -1 scale (10) col-1 show gr
/Times-Roman findfont 12.00 scalefont setfont
159 34 m 
gs 1 -1 scale (lminus) col-1 show gr
$F2psEnd
