%!PS-Adobe-2.0 EPSF-2.0
%%Title: /tmp/xfig-fig012162
%%Creator: fig2dev Version 2.1.8 Patchlevel 0
%%CreationDate: Wed Jul  6 13:56:20 1994
%%For: bronstei@ru7.inf.ethz.ch (Manuel Bronstein)
%%Orientation: Portrait
%%BoundingBox: 0 0 288 180
%%Pages: 0
%%EndComments
/$F2psDict 200 dict def 
$F2psDict begin
$F2psDict /mtrx matrix put
/l {lineto} bind def
/m {moveto} bind def
/s {stroke} bind def
/n {newpath} bind def
/gs {gsave} bind def
/gr {grestore} bind def
/clp {closepath} bind def
/graycol {dup dup currentrgbcolor 4 -2 roll mul 4 -2 roll mul
4 -2 roll mul setrgbcolor} bind def
/col-1 {} def
/col0 {0 0 0 setrgbcolor} bind def
/col1 {0 0 1 setrgbcolor} bind def
/col2 {0 1 0 setrgbcolor} bind def
/col3 {0 1 1 setrgbcolor} bind def
/col4 {1 0 0 setrgbcolor} bind def
/col5 {1 0 1 setrgbcolor} bind def
/col6 {1 1 0 setrgbcolor} bind def
/col7 {1 1 1 setrgbcolor} bind def
/col8 {.68 .85 .9 setrgbcolor} bind def
/col9 {0 .39 0 setrgbcolor} bind def
/col10 {.65 .17 .17 setrgbcolor} bind def
/col11 {1 .51 0 setrgbcolor} bind def
/col12 {.63 .13 .94 setrgbcolor} bind def
/col13 {1 .75 .8 setrgbcolor} bind def
/col14 {.7 .13 .13 setrgbcolor} bind def
/col15 {1 .84 0 setrgbcolor} bind def
 /DrawEllipse {
	/endangle exch def
	/startangle exch def
	/yrad exch def
	/xrad exch def
	/y exch def
	/x exch def
	/savematrix mtrx currentmatrix def
	x y translate xrad yrad scale 0 0 1 startangle endangle arc
	savematrix setmatrix
	} def

	end
/$F2psBegin {$F2psDict begin /$F2psEnteredState save def} def
/$F2psEnd {$F2psEnteredState restore end} def
%%EndProlog

$F2psBegin
0 setlinecap 0 setlinejoin
-252.0 234.0 translate 0.900 -0.900 scale
0.500 setlinewidth
% Ellipse
n 359 159 20 20 0 360 DrawEllipse gs col-1 s gr
% Ellipse
n 439 79 20 20 0 360 DrawEllipse gs col-1 s gr
% Ellipse
n 519 159 20 20 0 360 DrawEllipse gs col-1 s gr
% Ellipse
n 299 239 20 20 0 360 DrawEllipse gs col-1 s gr
% Ellipse
n 419 239 20 20 0 360 DrawEllipse gs col-1 s gr
% Ellipse
n 579 239 20 20 0 360 DrawEllipse gs col-1 s gr
% Polyline
n 374 144 m 424 94 l gs col-1 s gr
% Polyline
n 454 94 m 504 144 l gs col-1 s gr
% Polyline
n 304 219 m 344 174 l gs col-1 s gr
% Polyline
n 374 174 m 414 219 l gs col-1 s gr
% Polyline
n 534 174 m 574 219 l gs col-1 s gr
/Times-Roman findfont 12.00 scalefont setfont
434 84 m 
gs 1 -1 scale (12) col-1 show gr
/Times-Roman findfont 12.00 scalefont setfont
354 164 m 
gs 1 -1 scale (8) col-1 show gr
/Times-Roman findfont 12.00 scalefont setfont
514 164 m 
gs 1 -1 scale (14) col-1 show gr
/Times-Roman findfont 12.00 scalefont setfont
294 244 m 
gs 1 -1 scale (6) col-1 show gr
/Times-Roman findfont 12.00 scalefont setfont
414 244 m 
gs 1 -1 scale (10) col-1 show gr
/Times-Roman findfont 12.00 scalefont setfont
574 244 m 
gs 1 -1 scale (20) col-1 show gr
$F2psEnd
